{
  "kind": "collectionType",
  "collectionName": "paradas",
  "info": {
    "singularName": "parada",
    "pluralName": "paradas",
    "displayName": "paradas",
    "description": ""
  },
  "options": {
    "draftAndPublish": true
  },
  "pluginOptions": {},
  "attributes": {
    "num": {
      "type": "uid",
      "required": true
    },
    "nombre": {
      "type": "string",
      "required": true
    },
    "dirColonia": {
      "type": "string",
      "required": true
    },
    "dirCalle": {
      "type": "string",
      "required": true
    },
    "dirNumero": {
      "type": "string",
      "required": true,
      "unique": true
    },
    "rutas": {
      "type": "relation",
      "relation": "manyToMany",
      "target": "api::ruta.ruta",
      "mappedBy": "paradas"
    },
    "coordenadas": {
      "type": "json",
      "required": true
    },
    "Finalizado": {
      "type": "boolean",
      "required": true
    }
  }
}
