ansible-core==2.14.8
appdirs==1.4.4
argcomplete==2.0.0
asgiref==3.7.2
Beaker==1.12.1
beautifulsoup4==4.12.2
blivet==3.7.1
certifi==2023.7.22
cffi==1.16.0
charset-normalizer==3.3.2
cryptography==41.0.5
Django==4.2.7
django-cors-headers==4.3.1
django-filter==23.4
django-rest-knox==4.2.0
django-tailwind==3.6.0
djangorestframework==3.14.0
djangorestframework-simplejwt==5.3.0
idna==3.4
Jinja2==3.1.2
MarkupSafe==2.1.3
mysqlclient==2.2.0
packaging==23.2
Pillow==10.1.0
psycopg2-binary==2.9.9
pycparser==2.21
PyJWT==2.8.0
PyMySQL==1.1.0
pytz==2023.3.post1
pyudev==0.24.1
PyYAML==6.0.1
requests==2.31.0
resolvelib==0.8.1
six==1.16.0
soupsieve==2.5
sqlparse==0.4.4
tailwind==3.1.5b0
tailwindcss==0.0.1
typing_extensions==4.8.0
urllib3==2.0.7
